module gwusermod

go 1.14

require (
	github.com/go-openapi/errors v0.19.7
	github.com/go-openapi/loads v0.19.5
	github.com/go-openapi/runtime v0.19.22
	github.com/go-openapi/spec v0.19.9
	github.com/go-openapi/strfmt v0.19.5
	github.com/go-openapi/swag v0.19.9
	github.com/go-openapi/validate v0.19.11
	github.com/golang/protobuf v1.4.1
	github.com/jessevdk/go-flags v1.4.0
	golang.org/x/net v0.0.0-20200904194848-62affa334b73
	google.golang.org/grpc v1.32.0
	google.golang.org/protobuf v1.23.0
)
